<span style="color:green;">Loading composer repositories with package information</span>
<span style="color:green;">Updating dependencies</span>
<span style="color:white;background-color:red;">Your requirements could not be resolved to an installable set of packages.</span>

  Problem 1
    - don't install madeyourday/contao-rocksolid-custom-elements v1.3.11|remove contao-legacy/rocksolid-custom-elements 1.3.10.9011
    - don't install madeyourday/contao-rocksolid-custom-elements v1.3.11|don't install contao-legacy/rocksolid-custom-elements 1.3.10.9011
    - don't install madeyourday/contao-rocksolid-custom-elements v1.3.11|don't install contao-legacy/rocksolid-custom-elements 1.3.10.9011
    - don't install madeyourday/contao-rocksolid-custom-elements v1.3.11|don't install contao-legacy/rocksolid-custom-elements 1.3.10.9011
    - Installation request for madeyourday/contao-rocksolid-custom-elements >=1.3.11.0,<2-dev -> satisfiable by madeyourday/contao-rocksolid-custom-elements[v1.3.11].
    - Installation request for contao-legacy/rocksolid-custom-elements (locked at 1.3.10.9011) -> satisfiable by contao-legacy/rocksolid-custom-elements[1.3.10.9011].

